ps\sdacademy\servlets\GalleryServlet.class
ps\sdacademy\model\Museum.class
ps\sdacademy\servlets\LoginServlet.class
ps\sdacademy\servlets\HomeServlet.class
ps\sdacademy\filters\AuthorisationFilter.class
ps\sdacademy\filters\ServerLoggingFilter.class
ps\sdacademy\model\Person.class
ps\sdacademy\servlets\InstagramServlet.class
ps\sdacademy\servlets\LogoutServlet.class
ps\sdacademy\servlets\MuseumServlet.class
ps\sdacademy\servlets\ShowPersonsServlet.class
ps\sdacademy\model\Sex.class
ps\sdacademy\servlets\AboutServlet.class
ps\sdacademy\servlets\AddPersonsServlet.class
ps\sdacademy\model\Gallery.class
ps\sdacademy\servlets\ContactServlet.class
ps\sdacademy\utils\InstagramDownloader.class
ps\sdacademy\model\DataBaseCreator.class
ps\sdacademy\servlets\RegisterServlet.class
ps\sdacademy\model\Image.class
